# Blender MTL File: 'palm.blend'
# Material Count: 2

newmtl leafsGreen
Ns 0.000000
Ka 1.000000 1.000000 1.000000
Kd 0.160784 0.788235 0.670588
Ks 0.000000 0.000000 0.000000
Ke 0.000000 0.000000 0.000000
Ni 1.450000
d 1.000000
illum 1

newmtl woodBark
Ns 0.000000
Ka 1.000000 1.000000 1.000000
Kd 0.886275 0.513726 0.341177
Ks 0.000000 0.000000 0.000000
Ke 0.000000 0.000000 0.000000
Ni 1.450000
d 1.000000
illum 1
